{
 "signatures": [
  {
   "keyid": "d60cc6399cbc70863a4fb4b22302051a5a442c0f0be0e1bcc8c439ebb214f42a",
   "sig": "intentionally-invalid"
  }
 ],
 "signed": {
  "_type": "timestamp",
  "expires": "2022-05-05T20:40:53Z",
  "meta": {
   "snapshot.json": {
    "version": 2
   }
  },
  "spec_version": "1.0.31",
  "version": 2
 }
}
