untrusted comment: verify with root.pub at https://drupal.org/keys/root.pub
RWQVj5RBijXj1VxUcLMncA+tRszGcsYjbg+JLGTySHtf5H5j9LD8kXrAtghzq1pNrKTgsJ3lX5da5HjBLCKdm4FjDJ4ZeRH8lQk=
2021-12-22
untrusted comment: Intermediate generated Thu Sep 23 12:51:40 UTC 2021 public key
RWR38B5Y7m9Vl50HsfkyhwYYx+EzYKZi7tFEXnA19WBkEGOqXSWgaUHB
untrusted comment: verify with /etc/drupal-signing-oracle/intermediate.pub
RWR38B5Y7m9Vl8jspP3aZ8LYCeY2az2Bw43QJuFxEEWN7JxfPbZvUbCUkggMBWuoj+MD4fgs6Ykt4uRCfZuvhg5IGQk8nH5V3wM=
SHA256 (README.md) = c3c855f2aa29c6ef7b895f16a50c7f61403bda736ad6f18d614d98596593c043
SHA256 (composer.json) = 6e5f83d0f6c265efe2b077bd1942532502bbf4930cd2d7a07fd1668c533559ff
SHA256 (config/schema/config_enforce.schema.yml) = 4211564c684e1c26a3a113ec91581de0bfb46377578ca1c212255083cecfd118
SHA256 (config_enforce.api.php) = 81422bf233e2ffc8684eb55a0ecedb91cc196281d1775c6b282c009e27f7deda
SHA256 (config_enforce.info.yml) = 189298555fe573d2d2d53c8af82d991010b95f7d3157cc0e2ff382b0b7cff99e
SHA256 (config_enforce.libraries.yml) = f8e39fa4b2e42a40e56cf2a5dac1b0f9746f00b80334d47a7b9c001009e025d5
SHA256 (config_enforce.links.menu.yml) = 5525b4958bab9ebff03822031601661e45e26b5674d84892088411279638aa62
SHA256 (config_enforce.module) = 610f9c6125649e49fed571865e405da7ecc1f84f1a8f9514dfe99a9481f91f6b
SHA256 (config_enforce.routing.yml) = 175d480a854b5113d87b50ab311cb1895a7af577f39283ddea790a047e25c496
SHA256 (css/config-enforce.css) = fcac494159e3ee6b10adf1c37aba5e2d5b94857609e8d4589c44f2bfd02877e3
SHA256 (features/form-enforcement.feature) = e8743629fca7e85831e5107bd728c86022b49bf621f1fa44adb5315359e7fba6
SHA256 (src/ConfigEnforceHelperTrait.php) = 056194030eb67b7c5d4c91b5c03747726c8da39f42f512983e855edbc0b0f85d
SHA256 (src/ConfigEnforcer.php) = 8eda3d930afac2c918479daa39ea0f27456b6513707fe9e8aa5d074e022fc3fd
SHA256 (src/ConfigImporter.php) = 793376360329bcf2112250dd7d23b58e43910988904e839220053dc2af36a7e8
SHA256 (src/ConfigResolver.php) = 0dac888dcc9d62d0ecc9863f7bf3b6c2b49b3c1126335a91d832e4309ddfdcc9
SHA256 (src/EnforcedConfig.php) = 0d5d0a932e4a8408604e5ad412e909cc6a6ab0121baa3795c92a35123123e954
SHA256 (src/EnforcedConfigCollection.php) = 98de6d1a9a7e443dc2890413b03e58b886a67c12ff8a90c758bda9be6c146692
SHA256 (src/EnforcedConfigRegistry.php) = c64148ce4127929ed38a865a74b44e0febfe1f2edde65e85b89934331b929f35
SHA256 (src/Form/AbstractEnforceForm.php) = fb8486ebf5e31742b67e290638ed4077fdb0fda79c25b56a1b0202472c5620d5
SHA256 (src/Form/EnforceForm.php) = 670d9a701d232f859eaf1a8e0db9bf8c99fe0c653eefe2f3e1f9574f258256d0
SHA256 (src/Form/FormHelperTrait.php) = 1311b1c54a1d158125263a4f5c4d9d50530ae31dbf299d7871497fbf4dc0e743
SHA256 (src/FormHandler/AbstractEnforceFormHandler.php) = 7559c64c1fb04c71cfc029fa6b55511a7bda82ff225b332d56597739eac9c925
SHA256 (src/FormHandler/EnforceFormHandler.php) = 204bd09c188a8258ed3ade14cdf73752c7250937b7fc60753c9c18e578af5787
SHA256 (src/TargetModule.php) = 16073239a92e94acd351441702319558cf1e50f9ec9168012eae291fac5e4ec5
SHA256 (src/TargetModuleCollection.php) = 4145ff481f0e05591e76c8311e4f2f3aab9afb7c9df46714cf16a8da9610df64
SHA256 (tests/modules/config_enforce_test/config/install/config_enforce.registry.config_enforce_test.yml) = b5449928f3f4e8d114900eff32f2a2cec7735dca182eaee4d728d27670a1faa7
SHA256 (tests/modules/config_enforce_test/config/optional/system.cron.yml) = 463ec4611d14225e1acc7ed4f15fdb30eca3525093591c7860c67185f1058af5
SHA256 (tests/modules/config_enforce_test/config/optional/system.site.yml) = 760a1bb4b7f642125df87981e48bad61a4a9be3f7eeb8b6ff35432c3a7974672
SHA256 (tests/modules/config_enforce_test/config_enforce_test.info.yml) = cd46a06583a11409b1613fb16d291e4aa3a8ee8fa1318419205c517a9362b667
SHA256 (tests/src/Functional/ConfigEnforceConfigSchemaTest.php) = c54c651101f5f70b2fe486e1f514840b9875814696bf38c7f35299b29e8c994f
