<?xml version="1.0" encoding="UTF-8" standalone="no"?>
<!-- Created with Inkscape (http://www.inkscape.org/) -->

<svg
   version="1.1"
   id="svg2"
   width="815"
   height="227"
   viewBox="0 0 815 227"
   sodipodi:docname="logo-wide.svg"
   inkscape:version="1.4 (e7c3feb100, 2024-10-09)"
   inkscape:export-filename="logo-wide.png"
   inkscape:export-xdpi="96"
   inkscape:export-ydpi="96"
   xmlns:inkscape="http://www.inkscape.org/namespaces/inkscape"
   xmlns:sodipodi="http://sodipodi.sourceforge.net/DTD/sodipodi-0.dtd"
   xmlns="http://www.w3.org/2000/svg"
   xmlns:svg="http://www.w3.org/2000/svg"
   xmlns:rdf="http://www.w3.org/1999/02/22-rdf-syntax-ns#"
   xmlns:cc="http://creativecommons.org/ns#"
   xmlns:dc="http://purl.org/dc/elements/1.1/">
  <metadata
     id="metadata8">
    <rdf:RDF>
      <cc:Work
         rdf:about="">
        <dc:format>image/svg+xml</dc:format>
        <dc:type
           rdf:resource="http://purl.org/dc/dcmitype/StillImage" />
      </cc:Work>
    </rdf:RDF>
  </metadata>
  <defs
     id="defs6" />
  <sodipodi:namedview
     pagecolor="#ffffff"
     bordercolor="#666666"
     borderopacity="1"
     objecttolerance="10"
     gridtolerance="10"
     guidetolerance="10"
     inkscape:pageopacity="0"
     inkscape:pageshadow="2"
     inkscape:window-width="2278"
     inkscape:window-height="1018"
     id="namedview4"
     showgrid="false"
     inkscape:zoom="1.4142136"
     inkscape:cx="211.77848"
     inkscape:cy="214.6069"
     inkscape:window-x="0"
     inkscape:window-y="0"
     inkscape:window-maximized="0"
     inkscape:current-layer="svg2"
     inkscape:showpageshadow="2"
     inkscape:pagecheckerboard="0"
     inkscape:deskcolor="#d1d1d1" />
  <g
     id="g6"
     transform="matrix(0.94280402,0,0,0.94280402,-12.342016,-9.8921926)">
    <path
       style="fill:#ffffff;stroke:#0678be;stroke-width:21.1;stroke-linecap:butt;stroke-linejoin:round;stroke-miterlimit:4;stroke-dasharray:none;stroke-opacity:1"
       d="M 29.659185,236.83516 151.82087,23.039471 273.67192,236.65202 Z"
       id="path888"
       inkscape:connector-curvature="0"
       sodipodi:nodetypes="cccc" />
    <g
       id="g1523"
       transform="translate(-247.87682,98.287843)"
       style="fill:#064771;fill-opacity:1">
      <path
         sodipodi:nodetypes="cccscccsscccccccsscccsccccccsccccccscscscsccsscccsssscsssscccsss"
         style="fill:#064771;fill-opacity:1"
         d="m 397.92877,119.88249 -3.04721,-3.04721 -6.73165,1.56118 c -8.84875,2.05216 -9.21354,1.99619 -5.9133,-0.90723 l 2.80576,-2.4684 -8,-0.1276 -8,-0.12759 5,-1.28521 c 4.44613,-1.14284 1.92603,-1.29837 -22.75,-1.40401 l -27.75,-0.11879 v -2.5 -2.5 h 76 76 v 2.5 2.5 l -26.75,0.11879 c -23.86015,0.10596 -26.20984,0.25764 -21.75,1.40401 l 5,1.28521 -8,0.13196 -8,0.13196 3,2.45907 c 3.47001,2.84433 2.51644,2.9985 -5.9883,0.96818 l -5.98831,-1.42957 -3.04489,2.95123 -3.04489,2.95123 z M 338.19958,95.70763 c 1.04689,-9.52956 -0.98372,-9.23893 19.58263,-2.80271 10.04309,3.14297 18.93516,5.98007 19.76016,6.30465 0.825,0.32459 -7.79468,0.62569 -19.15484,0.66911 l -20.65485,0.0789 z m 89.34279,3.59177 c 2.37972,-0.6762 35.48784,-8.06541 35.61084,-7.94778 0.061,0.0583 0.40378,2.01851 0.76182,4.35601 l 0.65098,4.25 -19.26182,-0.116 c -10.594,-0.0638 -18.58682,-0.30781 -17.76182,-0.54223 z M 353.0204,84.06671 c -9.91209,-3.14606 -18.80975,-6.0224 -19.77259,-6.39187 -1.56873,-0.60198 -1.32735,-1.51359 2.32329,-8.77435 3.65542,-7.27027 4.24839,-7.966 5.77258,-6.77297 6.18034,4.8375 31.4673,28.26353 29.94869,27.7447 -0.1375,-0.047 -8.35989,-2.65946 -18.27197,-5.80551 z m 66.89295,3.39092 c 0.31526,-1.1 1.87894,-7.53068 3.47484,-14.2904 1.59591,-6.75972 3.15414,-12.5429 3.46275,-12.8515 0.54,-0.54001 12.36532,6.30523 13.18578,7.63275 0.22062,0.35698 -4.34585,5.34257 -10.14772,11.0791 -5.80187,5.73653 -10.29091,9.53005 -9.97565,8.43005 z m 14.62902,0.0124 c 0,-0.74359 25.05045,-20.51237 25.9927,-20.51237 1.41043,0 6.35473,10.65224 5.7164,12.31568 -0.26078,0.6796 -3.11452,1.8024 -6.34163,2.49511 -3.22711,0.69271 -10.25497,2.31578 -15.61747,3.60682 -5.3625,1.29104 -9.75,2.23368 -9.75,2.09476 z m -67.84401,-14.85606 -13.31623,-13.34369 3.14345,-2.64504 3.14345,-2.64504 7.98489,12.08499 c 9.59598,14.52335 13.00683,19.89247 12.6371,19.89247 -0.15204,0 -6.26874,-6.00466 -13.59266,-13.34369 z"
         id="path819"
         inkscape:connector-curvature="0" />
      <path
         sodipodi:nodetypes="cccccccccccccccccccccccccccccccccccccc"
         style="fill:#064771;fill-opacity:1;stroke-width:0.293164"
         id="path941"
         d="m 409.89322,92.515429 c 0.33714,-0.397243 0.52362,-0.915577 0.51514,-1.448293 l 0.2825,-51.303027 c 9.10265,-5.900778 12.41944,-11.942461 12.54755,-21.0568 0.25413,-13.8514295 -11.73826,-22.7177095 -22.52834,-22.9171925 -12.6188,0.06526 -23.50893,9.904846 -23.43487,23.0391495 0.58216,11.405241 7.27343,18.51984 14.18626,21.416271 l 0.0707,19.674884 c 0.007,0.632023 0.26273,1.21678 0.73217,1.652249 l 4.33188,3.997892 -4.29174,4.061562 c -0.45119,0.429954 -0.71797,1.018957 -0.70919,1.651816 -0.003,0.621076 0.26213,1.222378 0.7207,1.640909 l 4.344,4.01648 -4.30137,4.042964 c -0.45183,0.430139 -0.709,1.030318 -0.71189,1.65161 0.007,0.631395 0.21231,1.169358 0.73154,1.652888 l 4.33254,4.007192 -4.29157,4.053912 c -0.48498,0.440634 -0.73195,1.081843 -0.71378,1.728527 0.0305,0.582581 0.26448,1.111678 0.66781,1.510993 0.0579,0.05742 0.11947,0.113926 0.18408,0.167008 l 7.13394,5.649527 c 0.96239,0.76509 2.36217,0.61629 3.14934,-0.32797 z m -9.21019,-75.367772 c -3.92663,0.01763 -7.11829,-3.142284 -7.13585,-7.064745 -0.0199,-3.9259755 3.1394,-7.1170315 7.06352,-7.1345985 3.9212,-0.02041 7.11369,3.13651 7.13646,7.0641255 0.0192,3.921213 -3.14335,7.113115 -7.06413,7.135218 z m 3.19363,70.471375 c -0.46682,0.0021 -0.89711,-0.191823 -1.20253,-0.494191 -0.30542,-0.302378 -0.50388,-0.731125 -0.50621,-1.197532 l 0.323,-43.852299 c 1.14531,-0.04886 2.01383,-0.307728 3.12578,-0.515839 l -0.0537,44.356117 c 0.005,0.933649 -0.75312,1.699074 -1.68637,1.703744 z"
         inkscape:connector-curvature="0" />
    </g>
  </g>
  <path
     style="font-weight:900;font-size:42.6667px;line-height:1.25;font-family:'Roboto Slab';-inkscape-font-specification:'Roboto Slab Heavy';letter-spacing:0px;word-spacing:0px;fill:#064771;stroke-width:3.12711"
     d="m 259.43056,165.71616 v -13.3554 l 9.83736,-2.08472 V 86.365691 l -9.83736,-2.08473 V 70.795297 h 46.64606 q 11.27063,0 19.54445,3.583139 8.27383,3.583138 12.76906,10.228255 4.49521,6.579979 4.49521,15.635539 0,7.75264 -3.97405,14.52805 -3.90889,6.77543 -10.68428,11.14035 l 9.9025,24.23511 8.99045,2.28019 v 13.29023 h -27.62281 l -11.79181,-34.20279 -15.57042,-0.19544 v 18.95811 l 9.83736,2.08472 v 13.3554 z m 32.70436,-51.92309 h 14.20232 q 6.6451,0 10.22824,-3.06197 3.58313,-3.12712 3.58313,-8.99045 0,-6.05878 -3.64827,-9.70707 -3.6483,-3.71345 -10.42372,-3.71345 h -13.9417 z m 108.73226,53.2912 q -12.24786,0 -21.36858,-3.9089 -9.05558,-3.97405 -14.00687,-11.59638 -4.95124,-7.62233 -4.95124,-18.63236 V 86.365691 l -9.77223,-2.08473 V 70.860436 h 42.47659 v 13.420525 l -9.83736,2.08473 v 46.580939 q 0,8.59955 4.49522,12.76903 4.49523,4.10433 12.83417,4.10433 17.45973,0 17.45973,-16.87336 V 86.365691 l -9.77223,-2.08473 V 70.860436 h 42.47659 v 13.420525 l -9.83736,2.08473 v 46.580939 q 0,10.81457 -5.08156,18.50208 -5.08155,7.62233 -14.13717,11.66149 -8.99044,3.97407 -20.9777,3.97407 z m 98.7646,0 q -14.72347,0 -24.95172,-5.73307 -10.16312,-5.73301 -15.50529,-15.89613 -5.34214,-10.22824 -5.34214,-23.64879 v -4.29977 q 0,-14.13714 5.277,-24.95173 5.277,-10.814592 15.30982,-16.93854 10.03283,-6.123916 24.2351,-6.123916 9.70709,0 19.47932,2.996805 9.77221,2.931667 17.19911,9.31619 v 22.215521 h -16.28703 l -3.45287,-12.0524 q -2.21502,-2.2802 -6.31936,-3.77858 -4.03918,-1.498426 -9.12074,-1.498426 -11.79182,0 -17.72032,8.534406 -5.92847,8.46926 -5.92847,22.15036 v 4.43008 q 0,12.89935 6.12392,20.52168 6.18908,7.62233 17.91575,7.62233 4.10433,0 8.14353,-0.84692 4.03916,-0.84694 6.31936,-1.8893 V 134.9662 l -10.6843,-1.30293 V 117.8974 h 33.61645 v 39.34947 q -7.68748,4.95129 -17.39456,7.42689 -9.64192,2.41051 -20.91256,2.41051 z m 89.51357,0 q -14.72348,0 -24.95172,-5.73307 -10.16312,-5.73301 -15.50529,-15.89613 -5.34214,-10.22824 -5.34214,-23.64879 v -4.29977 q 0,-14.13714 5.277,-24.95173 5.277,-10.814592 15.3098,-16.93854 10.03284,-6.123916 24.23512,-6.123916 9.70709,0 19.47931,2.996805 9.77222,2.931667 17.19911,9.31619 v 22.215521 h -16.28702 l -3.45287,-12.0524 q -2.21502,-2.2802 -6.31936,-3.77858 -4.0392,-1.498426 -9.12074,-1.498426 -11.79182,0 -17.72032,8.534406 -5.92847,8.46926 -5.92847,22.15036 v 4.43008 q 0,12.89935 6.12391,20.52168 6.18909,7.62233 17.91576,7.62233 4.10433,0 8.14353,-0.84692 4.03916,-0.84694 6.31936,-1.8893 V 134.9662 l -10.68431,-1.30293 V 117.8974 h 33.61644 v 39.34947 q -7.68746,4.95129 -17.39454,7.42689 -9.64192,2.41051 -20.91256,2.41051 z m 45.60373,-1.36811 v -13.3554 l 9.83736,-2.08472 V 86.365691 l -9.83736,-2.08473 V 70.860436 h 75.76731 V 98.22265 H 693.2521 l -0.52116,-9.77222 h -25.2775 v 19.47931 h 30.29389 v 17.52486 h -30.29389 v 22.60639 h 26.5153 l 0.5212,-10.22825 h 17.06881 v 27.88342 z m 85.27895,0 v -13.3554 l 9.96767,-2.41047 V 86.756577 l -9.96767,-2.475616 V 70.860436 h 44.43104 q 12.8342,0 22.73669,5.99364 9.90253,5.928471 15.50528,16.482474 5.60272,10.48884 5.60272,24.2351 v 1.49842 q 0,13.74624 -5.60272,24.30025 -5.60275,10.48887 -15.50528,16.41734 -9.90249,5.9285 -22.73669,5.9285 z m 32.83468,-17.32942 h 10.42368 q 10.81459,0 16.41734,-8.01323 5.60275,-8.07836 5.60275,-21.30344 v -1.56356 q 0,-13.15992 -5.60275,-21.17317 -5.60275,-8.07835 -16.41734,-8.07835 h -10.42368 z"
     id="text1527"
     aria-label="RUGGED" />
</svg>
