{
 "signatures": [
  {
   "keyid": "4fced5553d56e6f0e8588bc5d54b8a4865a1f7933d31d617bf473e45f373ca33",
   "sig": "4cff182ebbe47e90df2e24fb2cc73e0435b7ffc06120a6732c1d366d82b542fd887e93a279c4257a78dd84a374015ac9ee64780aa00632a35df6425c81213904"
  },
  {
   "keyid": "3e1aa95ae3efedde73e7b8af6ae6cd2bb9d4172554538fbafe1c5c53ea91957d",
   "sig": "2291cf34777da544987e1ba9fb164991863cd191ecca0663e69706c648fdc627af3c1b53772f4fa6e387be10a4b4641ea981cf615596f578f2ba708a3dca5d0e"
  }
 ],
 "signed": {
  "_type": "root",
  "consistent_snapshot": false,
  "expires": "2123-12-16T16:24:07Z",
  "keys": {
   "3e1aa95ae3efedde73e7b8af6ae6cd2bb9d4172554538fbafe1c5c53ea91957d": {
    "keytype": "ed25519",
    "keyval": {
     "public": "8f697516b4124e67042a6210769ec2207506fbd2cded0d677b4b7c3511b8df4f"
    },
    "scheme": "ed25519"
   },
   "4fced5553d56e6f0e8588bc5d54b8a4865a1f7933d31d617bf473e45f373ca33": {
    "keytype": "ed25519",
    "keyval": {
     "public": "d8b17215a71425ef5b85db2be16a8cd8a8318e06bfef6f9a8613903a57d2c16e"
    },
    "scheme": "ed25519"
   },
   "b5b92b921d06282cf852686fd654376b7ea6ccd40e64b45fd8eb9286b7ed3120": {
    "keytype": "ed25519",
    "keyval": {
     "public": "256b5beeddfa51ffac476bcf4e5b3a40b6697f35eef1929e4de96aa1d43d2ae5"
    },
    "scheme": "ed25519"
   },
   "b7607ed7901e95d0abcf11c968790c7165e6bc6739e60053ded87f90cc37516b": {
    "keytype": "ed25519",
    "keyval": {
     "public": "74767b813f47733d3dfa8a0451478bbf4627a5aa3b5e51ddf3b5997d4b0e3a86"
    },
    "scheme": "ed25519"
   },
   "ca44f50de364d0be3886c82e8164ed8a905ceb552403a0595a925616c09e37cb": {
    "keytype": "ed25519",
    "keyval": {
     "public": "3b246ee29445a64b5ea98824b3c8f2f5ef2a0f3be17c6ae0431eb7ad2b8490bb"
    },
    "scheme": "ed25519"
   }
  },
  "roles": {
   "root": {
    "keyids": [
     "4fced5553d56e6f0e8588bc5d54b8a4865a1f7933d31d617bf473e45f373ca33",
     "3e1aa95ae3efedde73e7b8af6ae6cd2bb9d4172554538fbafe1c5c53ea91957d"
    ],
    "threshold": 1
   },
   "snapshot": {
    "keyids": [
     "b5b92b921d06282cf852686fd654376b7ea6ccd40e64b45fd8eb9286b7ed3120"
    ],
    "threshold": 1
   },
   "targets": {
    "keyids": [
     "b7607ed7901e95d0abcf11c968790c7165e6bc6739e60053ded87f90cc37516b"
    ],
    "threshold": 1
   },
   "timestamp": {
    "keyids": [
     "ca44f50de364d0be3886c82e8164ed8a905ceb552403a0595a925616c09e37cb"
    ],
    "threshold": 1
   }
  },
  "spec_version": "1.0.31",
  "version": 1
 }
}