{
    "name": "rugged/packages",
    "homepage": "http://packages.ddev.site",
    "output-dir": "/var/rugged/pkg_repo",
    "repositories": [
        {
            "type": "composer",
            "url": "https://packages.drupal.org/8"
        }
    ],
    "require": {
        "drupal/token": "1.11.0"
    }
}
